%YAML 1.1
%TAG !u! tag:unity3d.com,2011:
--- !u!1001 &5472554905661247377
PrefabInstance:
  m_ObjectHideFlags: 0
  serializedVersion: 2
  m_Modification:
    m_TransformParent: {fileID: 0}
    m_Modifications:
    - target: {fileID: 240560513006105832, guid: a0e0620cd8e5e4fcc8b2153c1e6d4ceb, type: 3}
      propertyPath: m_Name
      value: performance button
      objectReference: {fileID: 0}
    - target: {fileID: 240560513006105835, guid: a0e0620cd8e5e4fcc8b2153c1e6d4ceb, type: 3}
      propertyPath: m_Pivot.x
      value: 0.5
      objectReference: {fileID: 0}
    - target: {fileID: 240560513006105835, guid: a0e0620cd8e5e4fcc8b2153c1e6d4ceb, type: 3}
      propertyPath: m_Pivot.y
      value: 0.5
      objectReference: {fileID: 0}
    - target: {fileID: 240560513006105835, guid: a0e0620cd8e5e4fcc8b2153c1e6d4ceb, type: 3}
      propertyPath: m_RootOrder
      value: 0
      objectReference: {fileID: 0}
    - target: {fileID: 240560513006105835, guid: a0e0620cd8e5e4fcc8b2153c1e6d4ceb, type: 3}
      propertyPath: m_AnchorMax.x
      value: 0
      objectReference: {fileID: 0}
    - target: {fileID: 240560513006105835, guid: a0e0620cd8e5e4fcc8b2153c1e6d4ceb, type: 3}
      propertyPath: m_AnchorMax.y
      value: 1
      objectReference: {fileID: 0}
    - target: {fileID: 240560513006105835, guid: a0e0620cd8e5e4fcc8b2153c1e6d4ceb, type: 3}
      propertyPath: m_AnchorMin.x
      value: 0
      objectReference: {fileID: 0}
    - target: {fileID: 240560513006105835, guid: a0e0620cd8e5e4fcc8b2153c1e6d4ceb, type: 3}
      propertyPath: m_AnchorMin.y
      value: 1
      objectReference: {fileID: 0}
    - target: {fileID: 240560513006105835, guid: a0e0620cd8e5e4fcc8b2153c1e6d4ceb, type: 3}
      propertyPath: m_SizeDelta.x
      value: 450
      objectReference: {fileID: 0}
    - target: {fileID: 240560513006105835, guid: a0e0620cd8e5e4fcc8b2153c1e6d4ceb, type: 3}
      propertyPath: m_SizeDelta.y
      value: 300
      objectReference: {fileID: 0}
    - target: {fileID: 240560513006105835, guid: a0e0620cd8e5e4fcc8b2153c1e6d4ceb, type: 3}
      propertyPath: m_LocalPosition.x
      value: 0
      objectReference: {fileID: 0}
    - target: {fileID: 240560513006105835, guid: a0e0620cd8e5e4fcc8b2153c1e6d4ceb, type: 3}
      propertyPath: m_LocalPosition.y
      value: 0
      objectReference: {fileID: 0}
    - target: {fileID: 240560513006105835, guid: a0e0620cd8e5e4fcc8b2153c1e6d4ceb, type: 3}
      propertyPath: m_LocalPosition.z
      value: 0
      objectReference: {fileID: 0}
    - target: {fileID: 240560513006105835, guid: a0e0620cd8e5e4fcc8b2153c1e6d4ceb, type: 3}
      propertyPath: m_LocalRotation.w
      value: 1
      objectReference: {fileID: 0}
    - target: {fileID: 240560513006105835, guid: a0e0620cd8e5e4fcc8b2153c1e6d4ceb, type: 3}
      propertyPath: m_LocalRotation.x
      value: 0
      objectReference: {fileID: 0}
    - target: {fileID: 240560513006105835, guid: a0e0620cd8e5e4fcc8b2153c1e6d4ceb, type: 3}
      propertyPath: m_LocalRotation.y
      value: 0
      objectReference: {fileID: 0}
    - target: {fileID: 240560513006105835, guid: a0e0620cd8e5e4fcc8b2153c1e6d4ceb, type: 3}
      propertyPath: m_LocalRotation.z
      value: 0
      objectReference: {fileID: 0}
    - target: {fileID: 240560513006105835, guid: a0e0620cd8e5e4fcc8b2153c1e6d4ceb, type: 3}
      propertyPath: m_AnchoredPosition.x
      value: 225
      objectReference: {fileID: 0}
    - target: {fileID: 240560513006105835, guid: a0e0620cd8e5e4fcc8b2153c1e6d4ceb, type: 3}
      propertyPath: m_AnchoredPosition.y
      value: -165
      objectReference: {fileID: 0}
    - target: {fileID: 240560513006105835, guid: a0e0620cd8e5e4fcc8b2153c1e6d4ceb, type: 3}
      propertyPath: m_LocalEulerAnglesHint.x
      value: 0
      objectReference: {fileID: 0}
    - target: {fileID: 240560513006105835, guid: a0e0620cd8e5e4fcc8b2153c1e6d4ceb, type: 3}
      propertyPath: m_LocalEulerAnglesHint.y
      value: 0
      objectReference: {fileID: 0}
    - target: {fileID: 240560513006105835, guid: a0e0620cd8e5e4fcc8b2153c1e6d4ceb, type: 3}
      propertyPath: m_LocalEulerAnglesHint.z
      value: 0
      objectReference: {fileID: 0}
    - target: {fileID: 240560514443749303, guid: a0e0620cd8e5e4fcc8b2153c1e6d4ceb, type: 3}
      propertyPath: m_AnchorMax.x
      value: 1
      objectReference: {fileID: 0}
    - target: {fileID: 240560514443749303, guid: a0e0620cd8e5e4fcc8b2153c1e6d4ceb, type: 3}
      propertyPath: m_AnchorMax.y
      value: 0.5
      objectReference: {fileID: 0}
    - target: {fileID: 240560514443749303, guid: a0e0620cd8e5e4fcc8b2153c1e6d4ceb, type: 3}
      propertyPath: m_AnchorMin.x
      value: 0
      objectReference: {fileID: 0}
    - target: {fileID: 240560514443749303, guid: a0e0620cd8e5e4fcc8b2153c1e6d4ceb, type: 3}
      propertyPath: m_AnchorMin.y
      value: 0.5
      objectReference: {fileID: 0}
    - target: {fileID: 240560514443749303, guid: a0e0620cd8e5e4fcc8b2153c1e6d4ceb, type: 3}
      propertyPath: m_SizeDelta.x
      value: 10
      objectReference: {fileID: 0}
    - target: {fileID: 240560514443749303, guid: a0e0620cd8e5e4fcc8b2153c1e6d4ceb, type: 3}
      propertyPath: m_SizeDelta.y
      value: 610
      objectReference: {fileID: 0}
    - target: {fileID: 240560514443749303, guid: a0e0620cd8e5e4fcc8b2153c1e6d4ceb, type: 3}
      propertyPath: m_AnchoredPosition.x
      value: 0
      objectReference: {fileID: 0}
    m_RemovedComponents: []
  m_SourcePrefab: {fileID: 100100000, guid: a0e0620cd8e5e4fcc8b2153c1e6d4ceb, type: 3}
