%YAML 1.1
%TAG !u! tag:unity3d.com,2011:
--- !u!21 &2100000
Material:
  serializedVersion: 6
  m_ObjectHideFlags: 0
  m_CorrespondingSourceObject: {fileID: 0}
  m_PrefabInstance: {fileID: 0}
  m_PrefabAsset: {fileID: 0}
  m_Name: hw_doha_led_netz_unten_glow
  m_Shader: {fileID: 4800000, guid: a6223e197e414c84c904b75a7ef77e6f, type: 3}
  m_ShaderKeywords: _ALPHAPREMULTIPLY_ON _DETAIL_MULX2 _EMISSION _GLOSSYREFLECTIONS_OFF
    _SPECULARHIGHLIGHTS_OFF
  m_LightmapFlags: 2
  m_EnableInstancingVariants: 0
  m_DoubleSidedGI: 0
  m_CustomRenderQueue: -1
  stringTagMap: {}
  disabledShaderPasses: []
  m_SavedProperties:
    serializedVersion: 3
    m_TexEnvs:
    - _Alpha:
        m_Texture: {fileID: 2800000, guid: b123dcc804b961046a1934ab43221e1a, type: 3}
        m_Scale: {x: 100, y: 54}
        m_Offset: {x: 0, y: 0}
    - _BumpMap:
        m_Texture: {fileID: 0}
        m_Scale: {x: 1, y: 1}
        m_Offset: {x: 0, y: 0}
    - _DetailAlbedoMap:
        m_Texture: {fileID: 2800000, guid: 208c82b9b9bfbd64f8ead02b3c36deeb, type: 3}
        m_Scale: {x: 1, y: 1}
        m_Offset: {x: 0, y: 0}
    - _DetailMask:
        m_Texture: {fileID: 0}
        m_Scale: {x: 1, y: 1}
        m_Offset: {x: 0, y: 0}
    - _DetailNormalMap:
        m_Texture: {fileID: 0}
        m_Scale: {x: 1, y: 1}
        m_Offset: {x: 0, y: 0}
    - _EmissionMap:
        m_Texture: {fileID: 2800000, guid: adb0d8de85e24484f9bdf6e13fcf0917, type: 3}
        m_Scale: {x: 125, y: 43.1}
        m_Offset: {x: 0, y: 0}
    - _Illum:
        m_Texture: {fileID: 2800000, guid: adb0d8de85e24484f9bdf6e13fcf0917, type: 3}
        m_Scale: {x: 125, y: 43.1}
        m_Offset: {x: 0, y: 0}
    - _MKGlowTex:
        m_Texture: {fileID: 0}
        m_Scale: {x: 1, y: 1}
        m_Offset: {x: 0, y: 0}
    - _MainTex:
        m_Texture: {fileID: 2800000, guid: d1a2d4dcdabcf7042ae5a0dbbfcd828a, type: 3}
        m_Scale: {x: 113, y: 61}
        m_Offset: {x: 0, y: 0}
    - _MetallicGlossMap:
        m_Texture: {fileID: 0}
        m_Scale: {x: 1, y: 1}
        m_Offset: {x: 0, y: 0}
    - _OcclusionMap:
        m_Texture: {fileID: 0}
        m_Scale: {x: 1, y: 1}
        m_Offset: {x: 0, y: 0}
    - _ParallaxMap:
        m_Texture: {fileID: 0}
        m_Scale: {x: 1, y: 1}
        m_Offset: {x: 0, y: 0}
    - _Video:
        m_Texture: {fileID: 2800000, guid: 91add63d066ed4b4dae6a59845123646, type: 3}
        m_Scale: {x: 1, y: 1}
        m_Offset: {x: 0, y: 0}
    m_Floats:
    - _BumpScale: 1
    - _Cutoff: 0.21
    - _DetailNormalMapScale: 1
    - _DistanceF: 0.0005
    - _DstBlend: 10
    - _Emission: 1
    - _EmissionLM: 0
    - _GlossMapScale: 1
    - _Glossiness: 0
    - _GlossyReflections: 0
    - _MKGlowPower: 1
    - _MKGlowTexStrength: 1.21
    - _Max: 0.1
    - _Metallic: 0
    - _Mode: 3
    - _OcclusionStrength: 1
    - _Offset: 0
    - _Parallax: 0.02
    - _Pitch: 500
    - _Power: 0.29
    - _Shininess: 0.078125
    - _SmoothnessTextureChannel: 0
    - _SpecularHighlights: 0
    - _SrcBlend: 1
    - _UVSec: 0
    - _ZWrite: 0
    m_Colors:
    - _Color: {r: 0.08, g: 0.12, b: 0.16, a: 1}
    - _EmissionColor: {r: 1, g: 1, b: 1, a: 1}
    - _MKGlowColor: {r: 1, g: 1, b: 1, a: 1}
    - _MKGlowTexColor: {r: 1, g: 1, b: 1, a: 1}
    - _SpecColor: {r: 0.5, g: 0.5, b: 0.5, a: 0}
