%YAML 1.1
%TAG !u! tag:unity3d.com,2011:
--- !u!1045 &1
EditorBuildSettings:
  m_ObjectHideFlags: 0
  serializedVersion: 2
  m_Scenes:
  - enabled: 1
    path: Assets/Scenes/doha_5g_displays_text.unity
    guid: f9e0c362a055223429d7ead2b6efd70c
  m_configObjects: {}
